Manipulando datos
…
Filtrando los datos

En nuestro informe también realizamos un gráfico por especies. Para ello necesitamos mantener sólo los datos de la especie que queremos analizar. Utilizamos la función filter() para filtrar filas de un data.frame, esta función devuelve un nuevo data.frame con sólo las filas que satisfacen algunas condiciones.

Podemos utilizar operadores lógicos (>, <, >=, <=, ==) para crear condiciones a partir de variables numéricas. Estos operadores también son útiles para fechas y cadenas de texto. El siguiente código aplica una condición (que sea igual a) para datos de tipo texto (la columna especie).

pinguinos %>% 
  filter(especie == "Papúa")

## # A tibble: 124 × 8
##    especie isla  largo_pico_mm alto_pico_mm largo_aleta_mm masa_corporal_g sexo 
##    <chr>   <chr>         <dbl>        <dbl>          <dbl>           <dbl> <chr>
##  1 Papúa   Bisc…          46.1         13.2            211            4500 hemb…
##  2 Papúa   Bisc…          50           16.3            230            5700 macho
##  3 Papúa   Bisc…          48.7         14.1            210            4450 hemb…
##  4 Papúa   Bisc…          50           15.2            218            5700 macho
##  5 Papúa   Bisc…          47.6         14.5            215            5400 macho
##  6 Papúa   Bisc…          46.5         13.5            210            4550 hemb…
##  7 Papúa   Bisc…          45.4         14.6            211            4800 hemb…
##  8 Papúa   Bisc…          46.7         15.3            219            5200 macho
##  9 Papúa   Bisc…          43.3         13.4            209            4400 hemb…
## 10 Papúa   Bisc…          46.8         15.4            215            5150 macho
## # … with 114 more rows, and 1 more variable: anio <dbl>
…
